<?xml version="1.0" encoding="UTF-8"?>
<CustomTab xmlns="http://soap.sforce.com/2006/04/metadata">
    <label>CIM position Metric Summary Page</label>
    <mobileReady>false</mobileReady>
    <motif>Custom70: Handsaw</motif>
    <page>CIM_Position_Metric_Summary_Page</page>
</CustomTab>
