<?xml version="1.0" encoding="UTF-8"?>
<CustomTab xmlns="http://soap.sforce.com/2006/04/metadata">
    <label>Workload Simulation</label>
    <mobileReady>false</mobileReady>
    <motif>Custom44: Hammer</motif>
    <page>Aversh_Simulation_3_change</page>
</CustomTab>
