{
    "time_stamp": "2021-05-21 19:06:50", 
    "session_id": "00Df4000003mdu7!AR8AQKeWj41iSzJsOXnD_xcOU3Uo7F8O2SAnCcPKiq7GJFMRS8d6bFNbvAVz8zZFtC0Cg.K0ry2_.FgQO9uqbeAvTFoe_43I", 
    "metadata_url": "https://arsntpkg-dev-ed.my.salesforce.com/services/Soap/m/41.0", 
    "headers": {
        "Accept": "application/json", 
        "Authorization": "OAuth 00Df4000003mdu7!AR8AQKeWj41iSzJsOXnD_xcOU3Uo7F8O2SAnCcPKiq7GJFMRS8d6bFNbvAVz8zZFtC0Cg.K0ry2_.FgQO9uqbeAvTFoe_43I", 
        "Content-Type": "application/json; charset=UTF-8"
    }, 
    "success": true, 
    "apex_url": "https://arsntpkg-dev-ed.my.salesforce.com/services/Soap/s/41.0", 
    "partner_url": "https://arsntpkg-dev-ed.my.salesforce.com/services/Soap/u/41.0", 
    "rest_url": "https://arsntpkg-dev-ed.my.salesforce.com/services/data/v41.0", 
    "instance_url": "https://arsntpkg-dev-ed.my.salesforce.com", 
    "user_id": "005f40000020DmGAAU", 
    "project name": "S&T Packaing"
}